{
    "/js/vendor.js": "/js/vendor.js?id=50471440c76c8fbb2819",
    "/js/frontend.js": "/js/frontend.js?id=651d841b9ab1a073deb4",
    "/css/frontend.css": "/css/frontend.css?id=8e0a12bb094b00165ad7",
    "/css/backend.css": "/css/backend.css?id=19500751aefc947f4b61",
    "/js/backend.js": "/js/backend.js?id=4deac8afd844cd2fb03f",
    "/js/manifest.js": "/js/manifest.js?id=7c0a19fb1a3afbe0a6cb"
}
